lab6/run/b06_dumpports.vcd
$comment
	File created using the following command:
		vcd file b06_dumpports.vcd -dumpports
$end
$date
	Wed Nov 10 18:28:49 2021
$end
$version
	dumpports QuestaSim Version 10.5c_4
$end
$timescale
	1ns
$end

$scope module b06_testbench $end

$scope module dut $end
$var port [2:1] <0 cc_mux $end
$var port [2:1] <1 uscite $end
$var port 1 <2 eql $end
$var port 1 <3 clock $end
$var port 1 <4 reset $end
$var port 1 <5 cont_eql $end
$var port 1 <6 test_si $end
$var port 1 <7 test_se $end
$var port 1 <8 enable_count $end
$var port 1 <9 ackout $end
$upscope $end
$upscope $end
$enddefinitions $end
#0
$dumpports
pD 6 0 <2
pD 6 0 <3
pX 6 6 <8
pX 6 6 <9
pD 6 0 <4
pU 0 6 <5
pD 6 0 <6
pD 6 0 <7
pXX 66 66 <0 
pXX 66 66 <1 
$end
#50
pU 0 6 <4
pL 6 0 <8
pL 6 0 <9
pLL 66 00 <1 
pLL 66 00 <0 
#80
pD 6 0 <4
#100
pD 6 0 <5
pU 0 6 <2
#150
pU 0 6 <3
pH 0 6 <8
pH 0 6 <9
pLH 60 06 <1 
pLH 60 06 <0 
#180
pD 6 0 <3
#200
pU 0 6 <5
pD 6 0 <2
#250
pU 0 6 <3
pL 6 0 <8
pL 6 0 <9
pHL 06 60 <0 
#280
pD 6 0 <3
#300
pD 6 0 <5
pU 0 6 <2
#350
pU 0 6 <3
pH 0 6 <8
pH 0 6 <9
pLL 66 00 <1 
pHH 00 66 <0 
#380
pD 6 0 <3
#400
pU 0 6 <5
pD 6 0 <2
#450
pU 0 6 <3
pL 6 0 <8
pL 6 0 <9
pHH 00 66 <1 
pHL 06 60 <0 
#480
pD 6 0 <3
#500
pD 6 0 <5
pU 0 6 <2
#550
pU 0 6 <3
pH 0 6 <8
pH 0 6 <9
#580
pD 6 0 <3
#600
pU 0 6 <5
pD 6 0 <2
$vcdclose
